…
``` r
pols_tidy =
  pols_month_clean %>% 
  mutate(month = as.Date(as.character(month),"%B"))
  
pols_snp_df = 
  left_join(pols_month_clean,snp_df,by = c("year" = "year", "month" = "month")) %>% 
  mutate(year = as.double(year))
Fivethirtyfive =
  left_join(pols_snp_df,unemployment_clean, by = c("year" = "year", "month" = "month"))
Fivethirtyfive
```

    ## # A tibble: 4,932 × 7
    ##     year month    president values day   close percentage
    ##    <dbl> <chr>    <chr>      <dbl> <chr> <dbl>      <dbl>
    ##  1  1947 January  gov_gop       23 <NA>     NA         NA
    ##  2  1947 January  sen_gop       51 <NA>     NA         NA
    ##  3  1947 January  rep_gop      253 <NA>     NA         NA
    ##  4  1947 January  gov_dem       23 <NA>     NA         NA
    ##  5  1947 January  sen_dem       45 <NA>     NA         NA
    ##  6  1947 January  rep_dem      198 <NA>     NA         NA
    ##  7  1947 February gov_gop       23 <NA>     NA         NA
    ##  8  1947 February sen_gop       51 <NA>     NA         NA
    ##  9  1947 February rep_gop      253 <NA>     NA         NA
    ## 10  1947 February gov_dem       23 <NA>     NA         NA
    ## # … with 4,922 more rows
